0 4808
1 826
2 1002
3 1162
4 1157
5 1262
6 1229
7 1157
8 1210
9 1261
10 1284
11 1343
12 0
13 1431
14 1436
15 1440
16 1481
17 1444
18 1510
19 1504
20 1485
21 1540
22 1611
23 1594
24 1673
25 0
26 1681
27 1714
28 1731
29 1900
30 1890
31 1925
32 2091
33 1990
34 2042
35 2046
36 2033
37 2045
38 0
39 1997
40 2042
41 1992
42 1875
43 1845
44 1831
45 1740
46 1726
47 1662
48 1716
49 1671
50 1633
51 0
52 1671
53 1665
54 1682
55 1626
56 1649
57 1622
58 1615
59 1573
60 1551
61 1484
62 1512
63 0
64 1484
65 1475
66 1443
67 1408
68 1474
69 1420
70 1430
71 1430
72 1389
73 1345
74 1420
75 1423
76 0
77 1378
78 1411
79 1416
80 1458
81 1471
82 1495
83 1481
84 1459
85 1534
86 1477
87 1527
88 1556
89 0
90 1525
91 1584
92 1553
93 1553
94 1602
95 1586
96 1503
97 1557
98 1624
99 1544
100 1451
101 1524
102 0
103 1524
104 1487
105 1438
106 1370
107 1338
108 1328
109 1316
110 1263
111 1173
112 1132
113 1094
114 0
115 1008
116 976
117 956
118 956
119 865
120 838
121 790
122 797
123 766
124 796
125 690
126 738
127 0
128 643
129 666
130 662
131 656
132 656
133 611
134 601
135 610
136 562
137 576
138 585
139 568
140 0
141 579
142 460
143 540
144 487
145 504
146 460
147 444
148 474
149 496
150 461
151 485
152 0
153 482
154 469
155 454
156 446
157 410
158 392
159 425
160 438
161 384
162 446
163 465
164 432
165 0
166 484
167 506
168 470
169 477
170 452
171 431
172 486
173 498
174 560
175 476
176 525
177 540
178 0
179 576
180 577
181 611
182 656
183 640
184 651
185 636
186 667
187 647
188 647
189 637
190 667
191 0
192 664
193 670
194 700
195 738
196 767
197 725
198 777
199 719
200 689
201 687
202 671
203 625
204 0
205 663
206 675
207 659
208 754
209 861
210 896
211 1137
212 1141
213 1236
214 1210
215 1244
216 0
217 1169
218 983
219 1189
220 1316
221 1335
222 1313
223 1284
224 1118
225 918
226 969
227 1038
228 1339
229 0
230 2109
231 2097
232 1448
233 1013
234 934
235 1119
236 1109
237 1141
238 1298
239 1381
240 1648
241 1871
242 0
243 1720
244 1011
245 453
246 179
247 152
248 94
249 49
250 45
251 45
252 45
253 40
254 351
255 0
